{
    "name": "JasonBouKheir.UnitySerializableType",
    "references": [
        "JasonBouKheir.UnityEditorExtensions"
    ],
    "includePlatforms": [],
    "excludePlatforms": [],
    "allowUnsafeCode": false,
    "overrideReferences": false,
    "precompiledReferences": [],
    "autoReferenced": true,
    "defineConstraints": [],
    "versionDefines": [],
    "noEngineReferences": false
}